{
  "debug": true,
  "server": {
    "address": ":9091"
  },
  "context":{
    "timeout":2
  },
  "database": {
    "host": "localhost",
    "port": "3306",
    "user": "root",
    "pass": "b4r4mij",
    "name": "article"
  }

}
